[{
   "nodes": [{
         "name": "Lorem",
         "group": 1,
         "value": "20.0",
         "size": "70.0"
      },
      {
         "name": "ipsum",
         "group": 1,
         "value": "3.9473684210526314",
         "size": "13.815789473684212"
      },
      {
         "name": "dolor",
         "group": 2,
         "value": "3.6842105263157894",
         "size": "13.575681997798533"
      },
      {
         "name": "sit",
         "group": 3,
         "value": "2.6315789473684212",
         "size": "10.830555762051588"
      },
      {
         "name": "amet",
         "group": 1,
         "value": "2.1052631578947367",
         "size": "2.972628744218157"
      },
      {
         "name": "consectetur",
         "group": 2,
         "value": "1.8421052631578947",
         "size": "6.447368421052631"
      },
      {
         "name": "adipiscing",
         "group": 3,
         "value": "1.5789473684210527",
         "size": "0.7949526285747869"
      },
      {
         "name": "elit",
         "group": 1,
         "value": "1.5789473684210527",
         "size": "1.7116688611038027"
      },
      {
         "name": "sed",
         "group": 2,
         "value": "1.5789473684210527",
         "size": "2.141858066979429"
      },
      {
         "name": "do",
         "group": 3,
         "value": "1.5789473684210527",
         "size": "5.526315789473683"
      }
   ],
   "links": [{
         "source": 0,
         "target": 1,
         "weight": 10
      },
      {
         "source": 0,
         "target": 2,
         "weight": 2
      },
      {
         "source": 1,
         "target": 2,
         "weight": 5
      },

      {
         "source": 6,
         "target": 5,
         "weight": 5
      },

      {
         "source": 0,
         "target": 3,
         "weight": 5
      },

      {
         "source": 3,
         "target": 8,
         "weight": 5
      },
      {
         "source": 7,
         "target": 2,
         "weight": 5
      }
   ]
}]
